Ustanova,Nivo,Oznaka programa,Naziv programa
Ustanova,Nivo,Oznaka programa,Naziv programa
Ustanova,Nivo,Oznaka programa,Naziv programa
Ustanova,Nivo,Oznaka programa,Naziv programa
Ustanova,Nivo,Oznaka programa,Naziv programa
Ustanova,Nivo,Oznaka programa,Naziv programa
Ustanova,Nivo,Oznaka programa,Naziv programa
