{
    "columns": [
        "oznaka",
        "naziv",
        "adresa"
    ],
    "column_names": [
        "Oznaka", 
        "Naziv", 
        "Adresa"
    ],
    "delimiter": ",",
    "key": "oznaka",
    "linked_files": [
        "studenti_data.csv",
        "studijski_program_data.csv",
        "nastavni_predmet_data.csv"
    ],
    "type": "sekvencijalna"
}